使用tidymodels架構建立預測模型
…
Step 4 使用模型與測試組資料驗證模型效能

使用predict()函數，用剛剛訓練出來的模型lr_fit以及一開始分出的測試組DM_test產生預測結果，注意這邊要用測試組資料

lr_pred <- lr_fit %>% 
  predict(DM_test)
lr_pred

## # A tibble: 97 x 1
##    .pred_class
##    <fct>      
##  1 pos        
##  2 neg        
##  3 neg        
##  4 pos        
##  5 pos        
##  6 pos        
##  7 neg        
##  8 neg        
##  9 neg        
## 10 neg        
## # ... with 87 more rows

將預測結果與答案結合

lr_pred <- lr_fit %>%
  predict(DM_test) %>% 
  bind_cols(DM_test %>% select(diabetes)) 
lr_pred

## # A tibble: 97 x 2
##    .pred_class diabetes
##    <fct>       <fct>   
##  1 pos         pos     
##  2 neg         pos     
##  3 neg         neg     
##  4 pos         pos     
##  5 pos         pos     
##  6 pos         pos     
##  7 neg         neg     
##  8 neg         neg     
##  9 neg         neg     
## 10 neg         neg     
## # ... with 87 more rows
…
## # A tibble: 1 x 3
##   .metric  .estimator .estimate
##   <chr>    <chr>          <dbl>
## 1 accuracy binary         0.814

但很多時候我們需要Area under the ROC curve，此時我們需要的不是直接pos或neg的結果，我們需要的是連續性的預測數值，這邊可將predict()函數的type參數設定為prob，即回傳各組預測值

lr_pred <- lr_fit %>%
  predict(DM_test,
          type = "prob")%>% 
  bind_cols(DM_test %>% select(diabetes)) 
lr_pred

## # A tibble: 97 x 3
##    .pred_neg .pred_pos diabetes
##        <dbl>     <dbl> <fct>   
##  1    0.180     0.820  pos     
##  2    0.648     0.352  pos     
##  3    0.850     0.150  neg     
##  4    0.0683    0.932  pos     
##  5    0.125     0.875  pos     
##  6    0.126     0.874  pos     
##  7    0.854     0.146  neg     
##  8    0.963     0.0366 neg     
##  9    0.824     0.176  neg     
## 10    0.733     0.267  neg     
## # ... with 87 more rows
…
rf_res <- 
  rf_wflow %>% 
  tune_grid(
    resamples = folds,
    grid = 50,
    metrics = metric_set(roc_auc),
    control=control_resamples(save_pred = TRUE)
    )

執行完後，可用collect_metrics()查看各參數效能

rf_res %>%
  collect_metrics()

## # A tibble: 49 x 7
##     mtry min_n .metric .estimator  mean     n std_err
##    <int> <int> <chr>   <chr>      <dbl> <int>   <dbl>
##  1     1     5 roc_auc binary     0.796    10  0.0248
##  2     1    15 roc_auc binary     0.808    10  0.0244
##  3     1    27 roc_auc binary     0.808    10  0.0260
##  4     2    11 roc_auc binary     0.800    10  0.0234
##  5     2    21 roc_auc binary     0.809    10  0.0247
##  6     2    23 roc_auc binary     0.809    10  0.0230
##  7     2    29 roc_auc binary     0.811    10  0.0241
##  8     2    32 roc_auc binary     0.813    10  0.0238
##  9     2    35 roc_auc binary     0.811    10  0.0243
## 10     2    36 roc_auc binary     0.814    10  0.0224
## # ... with 39 more rows
…
Step 7 用測試組資料驗證最終模型效能

使用predict()函數，用剛剛訓練出來的模型final_rf_model以及一開始分出的測試組DM_test產生預測結果，注意這邊要用測試組資料

rf_pred <- final_rf_model %>% 
  predict(DM_test)
rf_pred

## # A tibble: 97 x 1
##    .pred_class
##    <fct>      
##  1 pos        
##  2 neg        
##  3 neg        
##  4 pos        
##  5 pos        
##  6 pos        
##  7 neg        
##  8 neg        
##  9 neg        
## 10 neg        
## # ... with 87 more rows

將預測結果與答案結合

rf_pred <- final_rf_model %>%
  predict(DM_test) %>% 
  bind_cols(DM_test %>% select(diabetes)) 
rf_pred

## # A tibble: 97 x 2
##    .pred_class diabetes
##    <fct>       <fct>   
##  1 pos         pos     
##  2 neg         pos     
##  3 neg         neg     
##  4 pos         pos     
##  5 pos         pos     
##  6 pos         pos     
##  7 neg         neg     
##  8 neg         neg     
##  9 neg         neg     
## 10 neg         neg     
## # ... with 87 more rows
…
## # A tibble: 1 x 3
##   .metric  .estimator .estimate
##   <chr>    <chr>          <dbl>
## 1 accuracy binary         0.804

但很多時候我們需要Area under the ROC curve，此時我們需要的不是直接pos或neg的結果，我們需要的是連續性的預測數值，這邊可將predict()函數的type參數設定為prob，即回傳各組預測值

rf_pred <- final_rf_model %>%
  predict(DM_test,
          type = "prob")%>% 
  bind_cols(DM_test %>% select(diabetes)) 
rf_pred

## # A tibble: 97 x 3
##    .pred_neg .pred_pos diabetes
##        <dbl>     <dbl> <fct>   
##  1     0.370    0.630  pos     
##  2     0.509    0.491  pos     
##  3     0.655    0.345  neg     
##  4     0.159    0.841  pos     
##  5     0.104    0.896  pos     
##  6     0.181    0.819  pos     
##  7     0.864    0.136  neg     
##  8     0.954    0.0464 neg     
##  9     0.805    0.195  neg     
## 10     0.628    0.372  neg     
## # ... with 87 more rows
…
